…
    ## # A tibble: 2,314 x 3
    ## # Groups:   name, game_year [2,270]
    ##    name                game_year totalZ
    ##    <chr>                   <int>  <dbl>
    ##  1 Shaun Alexander          2005   9.40
    ##  2 Ezekiel Elliott          2016   9.06
    ##  3 LaDainian Tomlinson      2006   8.46
    ##  4 Priest Holmes            2002   8.28
    ##  5 Chris Johnson            2009   7.69
    ##  6 Adrian Peterson          2012   7.62
    ##  7 LeSean McCoy             2016   7.62
    ##  8 Priest Holmes            2003   7.54
    ##  9 LaDainian Tomlinson      2007   7.24
    ## 10 Marshawn Lynch           2014   7.05
    ## # … with 2,304 more rows
…
    ## # A tibble: 1,238 x 3
    ## # Groups:   name, game_year [1,226]
    ##    name            game_year totalZ
    ##    <chr>               <int>  <dbl>
    ##  1 Drew Bledsoe         2002   7.53
    ##  2 Jon Kitna            2006   7.51
    ##  3 Rich Gannon          2002   7.13
    ##  4 Drew Brees           2012   6.65
    ##  5 Brett Favre          2005   6.62
    ##  6 Peyton Manning       2004   6.59
    ##  7 Peyton Manning       2002   6.54
    ##  8 Drew Brees           2010   6.47
    ##  9 Drew Bledsoe         2005   6.39
    ## 10 Matt Hasselbeck      2003   6.32
    ## # … with 1,228 more rows
…
    ## # A tibble: 9,450 x 3
    ## # Groups:   name, game_year [9,273]
    ##    name            game_year totalZ
    ##    <chr>               <int>  <dbl>
    ##  1 Randy Moss           2007  11.2 
    ##  2 Torry Holt           2003  11.1 
    ##  3 Marvin Harrison      2002  11.0 
    ##  4 Randy Moss           2003  10.5 
    ##  5 Jordy Nelson         2014  10.2 
    ##  6 Marvin Harrison      2001  10.1 
    ##  7 Terrell Owens        2001   9.91
    ##  8 Odell Beckham        2015   9.56
    ##  9 Brandon Lloyd        2010   9.45
    ## 10 Rob Gronkowski       2011   9.36
    ## # … with 9,440 more rows
…
    ## # A tibble: 532 x 3
    ## # Groups:   team [32]
    ##    team  game_year totalZ
    ##    <chr>     <int>  <dbl>
    ##  1 NO         2011   21.2
    ##  2 NE         2007   19.7
    ##  3 NE         2012   18.0
    ##  4 DEN        2013   17.2
    ##  5 KC         2002   16.6
    ##  6 IND        2004   16.5
    ##  7 LA         2000   16.3
    ##  8 NO         2008   15.9
    ##  9 NO         2006   15.4
    ## 10 NE         2011   15.3
    ## # … with 522 more rows
